<svg
  width="55"
  height="58"
  viewBox="0 0 55 58"
  fill="none"
  xmlns="http://www.w3.org/2000/svg"
>
  <path
    d="M41.3009 41.6288C41.3654 40.8841 42.1943 40.4709 42.8278 40.8675L52.1363 46.6945C52.7984 47.1089 52.7509 48.0885 52.0519 48.437L41.7955 53.5509C41.0964 53.8995 40.2856 53.3479 40.353 52.5697L41.3009 41.6288Z"
    fill="#2F80ED"
  ></path>
  <circle cx="5.5" cy="5.5" r="5.5" fill="#9B51E0"></circle>
</svg>
