<svg width="48" height="48" viewBox="0 0 48 48" fill="none" xmlns="http://www.w3.org/2000/svg">
<g clip-path="url(#clip0_35_1459)">
<path d="M13.5547 20.88H4.17383V46.9565H13.5547V20.88Z" fill="#F6F5FF"/>
<path d="M28.8628 25.054H19.4819V46.9566H28.8628V25.054Z" fill="#E5E0FC"/>
<path d="M43.8262 16.7061H34.4453V46.9565H43.8262V16.7061Z" fill="#CFC0FF"/>
<path d="M39.1307 8.33739C40.5714 8.33739 41.7394 7.16943 41.7394 5.72869C41.7394 4.28795 40.5714 3.12 39.1307 3.12C37.6899 3.12 36.522 4.28795 36.522 5.72869C36.522 7.16943 37.6899 8.33739 39.1307 8.33739Z" fill="#AC7FFF"/>
<path d="M23.9998 16.6852C25.4406 16.6852 26.6085 15.5172 26.6085 14.0765C26.6085 12.6357 25.4406 11.4678 23.9998 11.4678C22.5591 11.4678 21.3911 12.6357 21.3911 14.0765C21.3911 15.5172 22.5591 16.6852 23.9998 16.6852Z" fill="#AC7FFF"/>
<path d="M8.86944 12.5113C10.3102 12.5113 11.4781 11.3434 11.4781 9.90264C11.4781 8.4619 10.3102 7.29395 8.86944 7.29395C7.42869 7.29395 6.26074 8.4619 6.26074 9.90264C6.26074 11.3434 7.42869 12.5113 8.86944 12.5113Z" fill="#AC7FFF"/>
<path d="M46.9565 45.9131H35.4783V17.7392H42.7826V41.7392C42.7826 42.0159 42.8925 42.2813 43.0882 42.477C43.2839 42.6727 43.5493 42.7827 43.8261 42.7827C44.1028 42.7827 44.3682 42.6727 44.5639 42.477C44.7596 42.2813 44.8696 42.0159 44.8696 41.7392V16.6957C44.8696 16.419 44.7596 16.1535 44.5639 15.9578C44.3682 15.7622 44.1028 15.6522 43.8261 15.6522H34.4348C34.158 15.6522 33.8926 15.7622 33.6969 15.9578C33.5012 16.1535 33.3913 16.419 33.3913 16.6957V45.9131H20.3478V26.087H27.6522V41.7392C27.6522 42.0159 27.7621 42.2813 27.9578 42.477C28.1535 42.6727 28.4189 42.7827 28.6957 42.7827C28.9724 42.7827 29.2378 42.6727 29.4335 42.477C29.6292 42.2813 29.7391 42.0159 29.7391 41.7392V25.0435C29.7391 24.7668 29.6292 24.5014 29.4335 24.3057C29.2378 24.11 28.9724 24 28.6957 24H19.3043C19.0276 24 18.7622 24.11 18.5665 24.3057C18.3708 24.5014 18.2609 24.7668 18.2609 25.0435V45.9131H5.21739V21.9131H12.5217V41.7392C12.5217 42.0159 12.6317 42.2813 12.8274 42.477C13.0231 42.6727 13.2885 42.7827 13.5652 42.7827C13.842 42.7827 14.1074 42.6727 14.3031 42.477C14.4988 42.2813 14.6087 42.0159 14.6087 41.7392V20.8696C14.6087 20.5929 14.4988 20.3275 14.3031 20.1318C14.1074 19.9361 13.842 19.8261 13.5652 19.8261H4.17391C3.89717 19.8261 3.63175 19.9361 3.43606 20.1318C3.24037 20.3275 3.13043 20.5929 3.13043 20.8696V45.9131H1.04348C0.766731 45.9131 0.501318 46.023 0.305628 46.2187C0.109938 46.4144 0 46.6798 0 46.9566C0 47.2333 0.109938 47.4987 0.305628 47.6944C0.501318 47.8901 0.766731 48 1.04348 48H46.9565C47.2333 48 47.4987 47.8901 47.6944 47.6944C47.8901 47.4987 48 47.2333 48 46.9566C48 46.6798 47.8901 46.4144 47.6944 46.2187C47.4987 46.023 47.2333 45.9131 46.9565 45.9131Z" fill="#341472"/>
<path d="M1.04348 10.9461H5.38435C5.58306 11.6189 5.97237 12.2196 6.50522 12.6759C7.03808 13.1321 7.69166 13.4242 8.38697 13.5169C9.08229 13.6096 9.78957 13.4989 10.4233 13.1983C11.0571 12.8976 11.5902 12.4198 11.9583 11.8227L20.3583 14.1496C20.3679 15.1182 20.762 16.0433 21.4538 16.7214C21.7963 17.0571 22.2016 17.3221 22.6465 17.5012C23.0915 17.6803 23.5673 17.7701 24.047 17.7653C24.5266 17.7605 25.0005 17.6612 25.4418 17.4733C25.8831 17.2853 26.283 17.0123 26.6187 16.6697C26.9545 16.3272 27.2195 15.9219 27.3986 15.477C27.5777 15.032 27.6674 14.5562 27.6626 14.0766C27.6618 13.817 27.6338 13.5582 27.5791 13.3044L36.6052 8.34787C37.0544 8.78278 37.6082 9.09437 38.213 9.25246C38.8179 9.41056 39.4534 9.40981 40.0578 9.25029C40.6623 9.09077 41.2154 8.77788 41.6635 8.34192C42.1116 7.90595 42.4396 7.36167 42.6157 6.76178H46.9565C47.2333 6.76178 47.4987 6.65184 47.6944 6.45615C47.8901 6.26046 48 5.99505 48 5.7183C48 5.44156 47.8901 5.17614 47.6944 4.98045C47.4987 4.78476 47.2333 4.67483 46.9565 4.67483H42.6157C42.3694 3.83159 41.8266 3.10578 41.0874 2.63119C40.3482 2.15659 39.4623 1.96519 38.5931 2.09227C37.7239 2.21935 36.9299 2.65634 36.3575 3.3227C35.7851 3.98905 35.4728 4.83986 35.4783 5.7183C35.4808 5.99278 35.5158 6.26599 35.5826 6.53222L26.567 11.4783C26.2289 11.1439 25.8281 10.8796 25.3876 10.7005C24.9471 10.5214 24.4755 10.4311 24 10.4348C23.3754 10.4286 22.7597 10.5826 22.2116 10.8822C21.6635 11.1818 21.2015 11.617 20.8696 12.1461L12.5217 9.80874C12.4975 8.94407 12.1663 8.11626 11.5875 7.4735C11.0086 6.83075 10.2198 6.41504 9.36239 6.3008C8.50496 6.18656 7.63486 6.38125 6.90789 6.85002C6.18091 7.31878 5.64453 8.03101 5.39478 8.85917H1.04348C0.766731 8.85917 0.501318 8.96911 0.305628 9.1648C0.109938 9.36049 0 9.6259 0 9.90265C0 10.1794 0.109938 10.4448 0.305628 10.6405C0.501318 10.8362 0.766731 10.9461 1.04348 10.9461ZM39.1304 4.17396C39.4404 4.17396 39.7435 4.26603 40.0011 4.43849C40.2587 4.61094 40.4593 4.85601 40.5775 5.14263C40.6956 5.42924 40.726 5.74449 40.6648 6.04839C40.6035 6.35229 40.4534 6.63117 40.2335 6.84965C40.0135 7.06812 39.7337 7.21637 39.4293 7.27558C39.125 7.33479 38.81 7.3023 38.5242 7.18223C38.2384 7.06216 37.9946 6.85992 37.8239 6.60115C37.6532 6.34238 37.5631 6.03875 37.5652 5.72874C37.568 5.31543 37.7341 4.91999 38.0273 4.6287C38.3206 4.33742 38.7171 4.17395 39.1304 4.17396ZM24 12.5218C24.2759 12.5227 24.5468 12.5965 24.785 12.7357C25.0232 12.875 25.2204 13.0748 25.3565 13.3148C25.4781 13.5354 25.5426 13.7829 25.5443 14.0348C25.5547 14.3473 25.4713 14.6557 25.3048 14.9203C25.1384 15.185 24.8965 15.3937 24.6103 15.5196C24.3241 15.6455 24.0068 15.6828 23.6992 15.6267C23.3917 15.5706 23.1079 15.4237 22.8846 15.2049C22.6613 14.9861 22.5086 14.7055 22.4462 14.3991C22.3839 14.0928 22.4147 13.7747 22.5347 13.4861C22.6547 13.1974 22.8584 12.9512 23.1196 12.7794C23.3807 12.6075 23.6874 12.5178 24 12.5218ZM8.86957 8.34787C9.17958 8.34788 9.48261 8.43994 9.74023 8.6124C9.99785 8.78485 10.1985 9.02992 10.3166 9.31654C10.4348 9.60315 10.4651 9.9184 10.4039 10.2223C10.3427 10.5262 10.1925 10.8051 9.9726 11.0236C9.75265 11.242 9.47278 11.3903 9.16848 11.4495C8.86417 11.5087 8.54913 11.4762 8.26332 11.3561C7.9775 11.2361 7.73377 11.0338 7.56305 10.7751C7.39232 10.5163 7.30228 10.2127 7.30435 9.90265C7.3071 9.48934 7.47323 9.0939 7.76646 8.80262C8.0597 8.51133 8.45625 8.34786 8.86957 8.34787Z" fill="#341472"/>
</g>
<defs>
<clipPath id="clip0_35_1459">
<rect width="48" height="48" fill="white"/>
</clipPath>
</defs>
</svg>
