<svg width="48" height="48" viewBox="0 0 48 48" fill="none" xmlns="http://www.w3.org/2000/svg">
<g clip-path="url(#clip0_35_1462)">
<path d="M44.1598 38.807H35.812C35.5915 38.0533 35.1327 37.3915 34.5044 36.9206C33.876 36.4498 33.112 36.1953 32.3268 36.1953C31.5416 36.1953 30.7776 36.4498 30.1492 36.9206C29.5209 37.3915 29.0621 38.0533 28.8416 38.807H17.2172C16.8098 38.831 16.4017 38.7716 16.0181 38.6322C15.6344 38.4929 15.2833 38.2766 14.9863 37.9966C14.6893 37.7166 14.4527 37.3789 14.2909 37.0042C14.1292 36.6294 14.0458 36.2256 14.0458 35.8174C14.0458 35.4092 14.1292 35.0054 14.2909 34.6306C14.4527 34.2559 14.6893 33.9182 14.9863 33.6382C15.2833 33.3582 15.6344 33.1419 16.0181 33.0026C16.4017 32.8632 16.8098 32.8037 17.2172 32.8278H30.3338C31.6815 32.8278 32.9741 32.2924 33.9271 31.3394C34.8801 30.3864 35.4155 29.0938 35.4155 27.7461C35.4155 26.3983 34.8801 25.1058 33.9271 24.1528C32.9741 23.1997 31.6815 22.6643 30.3338 22.6643L18.7824 22.6122C18.5654 21.8569 18.1085 21.1927 17.4807 20.7199C16.8529 20.2471 16.0883 19.9915 15.3024 19.9915C14.5166 19.9915 13.752 20.2471 13.1242 20.7199C12.4964 21.1927 12.0395 21.8569 11.8225 22.6122H4.40332V24.6991H11.7911C12.0082 25.4544 12.4651 26.1186 13.0929 26.5914C13.7207 27.0642 14.4853 27.3199 15.2711 27.3199C16.057 27.3199 16.8216 27.0642 17.4494 26.5914C18.0771 26.1186 18.5341 25.4544 18.7511 24.6991H30.3338C31.128 24.6991 31.8898 25.0147 32.4514 25.5763C33.013 26.1379 33.3285 26.8996 33.3285 27.6939C33.3285 28.4882 33.013 29.2499 32.4514 29.8115C31.8898 30.3732 31.128 30.6887 30.3338 30.6887H17.2172C16.5312 30.6576 15.846 30.7658 15.203 31.0069C14.56 31.248 13.9725 31.6169 13.476 32.0914C12.9796 32.5659 12.5844 33.136 12.3144 33.7675C12.0445 34.3989 11.9053 35.0785 11.9053 35.7652C11.9053 36.4519 12.0445 37.1315 12.3144 37.763C12.5844 38.3944 12.9796 38.9646 13.476 39.439C13.9725 39.9135 14.56 40.2824 15.203 40.5235C15.846 40.7646 16.5312 40.8728 17.2172 40.8417H28.7998C29.0203 41.5953 29.4791 42.2572 30.1075 42.7281C30.7358 43.1989 31.4999 43.4534 32.2851 43.4534C33.0703 43.4534 33.8343 43.1989 34.4626 42.7281C35.091 42.2572 35.5498 41.5953 35.7703 40.8417H44.1181L44.1598 38.807Z" fill="#E5E0FC"/>
<path d="M15.9861 5.72864H12V13.1269H15.9861V5.72864Z" fill="#E5E0FC"/>
<path d="M37.3875 5.72864H33.4014V13.1269H37.3875V5.72864Z" fill="#E5E0FC"/>
<path d="M15.2659 24.167C16.7067 24.167 17.8746 22.999 17.8746 21.5583C17.8746 20.1175 16.7067 18.9496 15.2659 18.9496C13.8252 18.9496 12.6572 20.1175 12.6572 21.5583C12.6572 22.999 13.8252 24.167 15.2659 24.167Z" fill="#AC7FFF"/>
<path d="M32.2855 40.3722C33.7262 40.3722 34.8941 39.2042 34.8941 37.7635C34.8941 36.3227 33.7262 35.1548 32.2855 35.1548C30.8447 35.1548 29.6768 36.3227 29.6768 37.7635C29.6768 39.2042 30.8447 40.3722 32.2855 40.3722Z" fill="#AC7FFF"/>
<path d="M46.9565 36.72H35.7704C35.55 35.9664 35.0912 35.3046 34.4628 34.8337C33.8345 34.3629 33.0704 34.1084 32.2852 34.1084C31.5 34.1084 30.736 34.3629 30.1076 34.8337C29.4793 35.3046 29.0205 35.9664 28.8 36.72H17.2174C16.4231 36.72 15.6614 36.4045 15.0998 35.8429C14.5381 35.2813 14.2226 34.5195 14.2226 33.7253C14.2226 32.931 14.5381 32.1693 15.0998 31.6076C15.6614 31.046 16.4231 30.7305 17.2174 30.7305H30.3339C31.0199 30.7616 31.7051 30.6533 32.3482 30.4122C32.9912 30.1712 33.5787 29.8022 34.0751 29.3278C34.5716 28.8533 34.9667 28.2832 35.2367 27.6517C35.5067 27.0203 35.6459 26.3407 35.6459 25.654C35.6459 24.9672 35.5067 24.2876 35.2367 23.6562C34.9667 23.0248 34.5716 22.4546 34.0751 21.9801C33.5787 21.5057 32.9912 21.1368 32.3482 20.8957C31.7051 20.6546 31.0199 20.5463 30.3339 20.5774L18.7826 20.5253C18.5655 19.7699 18.1086 19.1058 17.4808 18.633C16.853 18.1602 16.0885 17.9045 15.3026 17.9045C14.5167 17.9045 13.7522 18.1602 13.1244 18.633C12.4966 19.1058 12.0397 19.7699 11.8226 20.5253H5.44696V12.6053C5.44696 12.0518 5.66683 11.5209 6.05821 11.1296C6.44959 10.7382 6.98042 10.5183 7.53391 10.5183H10.9565V13.127C10.9565 13.4037 11.0665 13.6692 11.2621 13.8649C11.4578 14.0605 11.7233 14.1705 12 14.1705H15.9861C16.2628 14.1705 16.5282 14.0605 16.7239 13.8649C16.9196 13.6692 17.0296 13.4037 17.0296 13.127V10.5183H32.3478V13.127C32.3478 13.4037 32.4578 13.6692 32.6535 13.8649C32.8491 14.0605 33.1146 14.1705 33.3913 14.1705H37.3774C37.6541 14.1705 37.9196 14.0605 38.1152 13.8649C38.3109 13.6692 38.4209 13.4037 38.4209 13.127V10.5183H41.0191C41.5726 10.5183 42.1034 10.7382 42.4948 11.1296C42.8862 11.5209 43.1061 12.0518 43.1061 12.6053V32.5461C43.1061 32.8229 43.216 33.0883 43.4117 33.284C43.6074 33.4797 43.8728 33.5896 44.1496 33.5896C44.4263 33.5896 44.6917 33.4797 44.8874 33.284C45.0831 33.0883 45.193 32.8229 45.193 32.5461V12.6053C45.193 11.4983 44.7533 10.4366 43.9705 9.65386C43.1878 8.8711 42.1261 8.43135 41.0191 8.43135H38.4313V5.82265C38.4313 5.54591 38.3214 5.28049 38.1257 5.0848C37.93 4.88911 37.6646 4.77917 37.3878 4.77917H33.3913C33.1146 4.77917 32.8491 4.88911 32.6535 5.0848C32.4578 5.28049 32.3478 5.54591 32.3478 5.82265V8.43135H17.0296V5.82265C17.0296 5.54591 16.9196 5.28049 16.7239 5.0848C16.5282 4.88911 16.2628 4.77917 15.9861 4.77917H12C11.7233 4.77917 11.4578 4.88911 11.2621 5.0848C11.0665 5.28049 10.9565 5.54591 10.9565 5.82265V8.43135H7.53391C6.42692 8.43135 5.36527 8.8711 4.58251 9.65386C3.79975 10.4366 3.36 11.4983 3.36 12.6053V20.5148H1.04348C0.766731 20.5148 0.501318 20.6248 0.305628 20.8205C0.109938 21.0161 0 21.2816 0 21.5583C0 21.8351 0.109938 22.1005 0.305628 22.2962C0.501318 22.4918 0.766731 22.6018 1.04348 22.6018H11.7913C12.0147 23.3512 12.4741 24.0086 13.1011 24.4759C13.7281 24.9433 14.4893 25.1958 15.2713 25.1958C16.0534 25.1958 16.8145 24.9433 17.4415 24.4759C18.0685 24.0086 18.5279 23.3512 18.7513 22.6018H30.3339C30.7414 22.5777 31.1494 22.6372 31.5331 22.7765C31.9167 22.9159 32.2678 23.1322 32.5648 23.4121C32.8618 23.6921 33.0985 24.0298 33.2602 24.4046C33.422 24.7793 33.5054 25.1832 33.5054 25.5913C33.5054 25.9995 33.422 26.4034 33.2602 26.7781C33.0985 27.1529 32.8618 27.4906 32.5648 27.7706C32.2678 28.0505 31.9167 28.2668 31.5331 28.4062C31.1494 28.5455 30.7414 28.605 30.3339 28.5809H17.2174C15.8696 28.5809 14.5771 29.1163 13.6241 30.0693C12.671 31.0223 12.1357 32.3149 12.1357 33.6627C12.1357 35.0104 12.671 36.303 13.6241 37.256C14.5771 38.209 15.8696 38.7444 17.2174 38.7444H28.8C29.0205 39.498 29.4793 40.1598 30.1076 40.6307C30.736 41.1016 31.5 41.3561 32.2852 41.3561C33.0704 41.3561 33.8345 41.1016 34.4628 40.6307C35.0912 40.1598 35.55 39.498 35.7704 38.7444H43.0748V43.8261C43.0748 44.3796 42.8549 44.9105 42.4635 45.3018C42.0721 45.6932 41.5413 45.9131 40.9878 45.9131H7.53391C6.98042 45.9131 6.44959 45.6932 6.05821 45.3018C5.66683 44.9105 5.44696 44.3796 5.44696 43.8261V26.8383C5.44696 26.5616 5.33702 26.2961 5.14133 26.1005C4.94564 25.9048 4.68023 25.7948 4.40348 25.7948C4.12673 25.7948 3.86132 25.9048 3.66563 26.1005C3.46994 26.2961 3.36 26.5616 3.36 26.8383V43.8261C3.36 44.9331 3.79975 45.9948 4.58251 46.7775C5.36527 47.5603 6.42692 48 7.53391 48H41.0296C42.1366 48 43.1982 47.5603 43.981 46.7775C44.7637 45.9948 45.2035 44.9331 45.2035 43.8261V38.807H46.9565C47.2333 38.807 47.4987 38.6971 47.6944 38.5014C47.8901 38.3057 48 38.0403 48 37.7635C48 37.4868 47.8901 37.2214 47.6944 37.0257C47.4987 36.83 47.2333 36.72 46.9565 36.72ZM34.4348 6.86613H36.3339V12.0835H34.4348V6.86613ZM13.033 6.86613H14.9322V12.0835H13.0435L13.033 6.86613ZM15.2557 23.1235C14.9461 23.1235 14.6435 23.0317 14.3861 22.8597C14.1287 22.6877 13.928 22.4433 13.8096 22.1573C13.6911 21.8713 13.6601 21.5566 13.7205 21.2529C13.7809 20.9493 13.93 20.6704 14.1489 20.4515C14.3678 20.2326 14.6467 20.0836 14.9503 20.0232C15.2539 19.9628 15.5686 19.9938 15.8546 20.1122C16.1406 20.2307 16.3851 20.4313 16.5571 20.6887C16.7291 20.9461 16.8209 21.2487 16.8209 21.5583C16.8209 21.9716 16.6574 22.3682 16.3661 22.6614C16.0748 22.9546 15.6794 23.1208 15.2661 23.1235H15.2557ZM32.2852 39.3287C31.9756 39.3287 31.673 39.2369 31.4156 39.065C31.1582 38.893 30.9576 38.6485 30.8391 38.3625C30.7207 38.0765 30.6897 37.7618 30.7501 37.4582C30.8105 37.1545 30.9595 36.8756 31.1784 36.6567C31.3973 36.4378 31.6762 36.2888 31.9799 36.2284C32.2835 36.168 32.5982 36.199 32.8842 36.3174C33.1702 36.4359 33.4147 36.6365 33.5866 36.8939C33.7586 37.1513 33.8504 37.454 33.8504 37.7635C33.8504 38.1786 33.6855 38.5768 33.392 38.8703C33.0985 39.1638 32.7003 39.3287 32.2852 39.3287V39.3287Z" fill="#341472"/>
</g>
<defs>
<clipPath id="clip0_35_1462">
<rect width="48" height="48" fill="white"/>
</clipPath>
</defs>
</svg>
