<svg width="33" height="32" viewBox="0 0 33 32" fill="none" xmlns="http://www.w3.org/2000/svg">
<g clip-path="url(#clip0_7608_14954)">
<path d="M8.93954 31.3587V22.2112H11.2272L6.32552 17.6327L1.42383 22.2112H3.7115V31.3587H6.35112" stroke="#171321" stroke-width="1.27982" stroke-linecap="round" stroke-linejoin="round"/>
<path d="M19.3946 28.7702V13.7132H21.6823L16.7806 9.13787L11.8789 13.7132H14.1666V31.3587H19.3946" stroke="#171321" stroke-width="1.27982" stroke-linecap="round" stroke-linejoin="round"/>
<path d="M29.8517 31.3587V5.21844H32.1393L27.2376 0.643097L22.3359 5.21844H24.6236V31.3587H27.2632" stroke="#171321" stroke-width="1.27982" stroke-linecap="round" stroke-linejoin="round"/>
</g>
<defs>
<clipPath id="clip0_7608_14954">
<rect width="31.9954" height="31.9954" fill="white" transform="translate(0.78418 0.00314331)"/>
</clipPath>
</defs>
</svg>
