<svg width="100" height="100" viewBox="0 0 100 100" fill="none" xmlns="http://www.w3.org/2000/svg">
<g clip-path="url(#clip0_21_2279)">
<path d="M50 61.33C62.8351 61.33 73.24 50.9251 73.24 38.09C73.24 25.2549 62.8351 14.85 50 14.85C37.1649 14.85 26.76 25.2549 26.76 38.09C26.76 50.9251 37.1649 61.33 50 61.33Z" fill="#5AC4FF"/>
<path d="M65.72 54.12V46.38C65.72 45.29 65.287 44.2446 64.5162 43.4738C63.7454 42.7031 62.7 42.27 61.61 42.27C60.8143 42.27 60.0513 41.954 59.4887 41.3914C58.9261 40.8287 58.61 40.0657 58.61 39.27V35.08C58.6084 34.1833 58.8479 33.3026 59.3036 32.5302C59.7593 31.7579 60.4143 31.1223 61.2 30.69L69.83 25.91C69.83 25.91 80.51 44 65.72 54.12Z" fill="#38F2AF"/>
<path d="M43.75 51.66C44.8108 51.66 45.8283 51.2386 46.5784 50.4885C47.3286 49.7383 47.75 48.7209 47.75 47.66V47.53C47.7473 46.4895 47.3321 45.4924 46.5954 44.7576C45.8587 44.0227 44.8606 43.61 43.82 43.6101H43.7C42.4851 43.5969 41.3243 43.1057 40.4689 42.2429C39.6136 41.3801 39.1325 40.215 39.13 39V37.6C39.1353 36.3782 39.6244 35.2082 40.4902 34.3461C41.356 33.484 42.5281 33 43.75 33H47.06C47.8558 33 48.6438 32.8433 49.379 32.5388C50.1143 32.2342 50.7823 31.7878 51.345 31.2251C51.9078 30.6624 52.3541 29.9943 52.6587 29.2591C52.9632 28.5239 53.12 27.7359 53.12 26.94V25.2C53.1234 23.0007 52.3754 20.8662 51 19.15L47.28 14.55C43.2583 15.1148 39.4479 16.6989 36.2111 19.1516C32.9743 21.6044 30.4187 24.8443 28.7871 28.5633C27.1556 32.2823 26.5025 36.3568 26.8898 40.3995C27.2771 44.4421 28.692 48.3185 31 51.66H43.75Z" fill="#38F2AF"/>
<path d="M6.8 85.45C5.52696 85.45 4.30606 84.9443 3.40589 84.0441C2.50571 83.1439 2 81.923 2 80.65V74H98V80.62C98 81.893 97.4943 83.1139 96.5941 84.0141C95.6939 84.9143 94.473 85.42 93.2 85.42L6.8 85.45Z" fill="#AFA3C6"/>
<path d="M10.49 76C9.95956 76 9.45085 75.7892 9.07578 75.4142C8.7007 75.0391 8.48999 74.5304 8.48999 74V27C8.49264 25.1973 9.20991 23.4692 10.4846 22.1945C11.7593 20.9199 13.4873 20.2026 15.29 20.2H23.88C24.4104 20.2 24.9191 20.4107 25.2942 20.7857C25.6693 21.1608 25.88 21.6695 25.88 22.2C25.88 22.7304 25.6693 23.2391 25.2942 23.6142C24.9191 23.9892 24.4104 24.2 23.88 24.2H15.29C14.5482 24.2026 13.8375 24.4984 13.313 25.023C12.7885 25.5475 12.4926 26.2582 12.49 27V74C12.49 74.5304 12.2793 75.0391 11.9042 75.4142C11.5291 75.7892 11.0204 76 10.49 76Z" fill="#380D75"/>
<path d="M89.5101 76C88.9796 76 88.4709 75.7892 88.0958 75.4142C87.7208 75.0391 87.5101 74.5304 87.5101 74V27C87.5074 26.2582 87.2116 25.5475 86.687 25.023C86.1625 24.4984 85.4519 24.2026 84.7101 24.2H75.5601C75.0296 24.2 74.5209 23.9892 74.1459 23.6142C73.7708 23.2391 73.5601 22.7304 73.5601 22.2C73.5601 21.6695 73.7708 21.1608 74.1459 20.7857C74.5209 20.4107 75.0296 20.2 75.5601 20.2H84.7101C86.5127 20.2026 88.2408 20.9199 89.5155 22.1945C90.7901 23.4692 91.5074 25.1973 91.5101 27V74C91.5101 74.5304 91.2994 75.0391 90.9243 75.4142C90.5492 75.7892 90.0405 76 89.5101 76Z" fill="#380D75"/>
<path d="M93.2 87.45H6.8C4.99734 87.4474 3.26927 86.7301 1.9946 85.4554C0.719921 84.1807 0.00264514 82.4527 0 80.65L0 74C0 73.4696 0.210714 72.9609 0.585786 72.5858C0.960859 72.2107 1.46957 72 2 72H98C98.5304 72 99.0391 72.2107 99.4142 72.5858C99.7893 72.9609 100 73.4696 100 74V80.62C100.003 81.5151 99.8288 82.402 99.4883 83.2299C99.1479 84.0578 98.6476 84.8104 98.016 85.4448C97.3844 86.0791 96.634 86.5828 95.8076 86.9268C94.9813 87.2709 94.0951 87.4487 93.2 87.45ZM4 76V80.62C4.00264 81.3618 4.29848 82.0725 4.82301 82.597C5.34754 83.1215 6.05821 83.4174 6.8 83.42H93.2C93.9418 83.4174 94.6525 83.1215 95.177 82.597C95.7015 82.0725 95.9974 81.3618 96 80.62V76H4Z" fill="#380D75"/>
<path d="M43.35 53.3H30.87C30.3396 53.3 29.8309 53.0893 29.4558 52.7142C29.0807 52.3391 28.87 51.8304 28.87 51.3C28.87 50.7695 29.0807 50.2608 29.4558 49.8858C29.8309 49.5107 30.3396 49.3 30.87 49.3H43.35C43.7919 49.1993 44.1864 48.9515 44.469 48.5972C44.7517 48.2429 44.9056 47.8032 44.9056 47.35C44.9056 46.8968 44.7517 46.457 44.469 46.1027C44.1864 45.7485 43.7919 45.5007 43.35 45.4C41.6225 45.4 39.9656 44.7144 38.7432 43.4938C37.5207 42.2733 36.8326 40.6174 36.83 38.89V37.57C36.8326 35.8425 37.5207 34.1867 38.7432 32.9661C39.9656 31.7455 41.6225 31.06 43.35 31.06H46.57C47.6079 31.06 48.6035 30.6483 49.3383 29.9154C50.0732 29.1824 50.4873 28.1879 50.49 27.15V26.28C50.4915 25.3459 50.2589 24.4263 49.8134 23.6053C49.368 22.7843 48.7239 22.088 47.94 21.58L41.87 17.58C41.65 17.4362 41.4605 17.2505 41.3124 17.0334C41.1642 16.8164 41.0602 16.5723 41.0063 16.3151C40.9524 16.0579 40.9498 15.7926 40.9985 15.5343C41.0471 15.2761 41.1462 15.0299 41.29 14.81C41.4338 14.59 41.6195 14.4005 41.8365 14.2523C42.0536 14.1041 42.2977 14.0001 42.5549 13.9463C42.8121 13.8924 43.0774 13.8898 43.3356 13.9384C43.5939 13.9871 43.84 14.0862 44.06 14.23L50.13 18.23C51.4708 19.1013 52.5723 20.2944 53.3338 21.7005C54.0954 23.1065 54.4928 24.6809 54.49 26.28V27.15C54.4847 29.2479 53.6483 31.2583 52.1638 32.7409C50.6794 34.2234 48.668 35.0573 46.57 35.06H43.35C42.6834 35.06 42.0439 35.3241 41.5716 35.7945C41.0993 36.265 40.8326 36.9034 40.83 37.57V38.89C40.83 39.2204 40.8952 39.5476 41.022 39.8528C41.1488 40.158 41.3346 40.4352 41.5687 40.6684C41.8028 40.9016 42.0807 41.0862 42.3864 41.2118C42.6921 41.3373 43.0195 41.4013 43.35 41.4C44.7953 41.5877 46.1228 42.2951 47.0847 43.39C48.0465 44.485 48.577 45.8926 48.577 47.35C48.577 48.8074 48.0465 50.215 47.0847 51.3099C46.1228 52.4048 44.7953 53.1122 43.35 53.3Z" fill="#380D75"/>
<path d="M65.72 56.12C65.1896 56.12 64.6809 55.9093 64.3058 55.5342C63.9307 55.1591 63.72 54.6504 63.72 54.12V46.38C63.7174 45.8212 63.4942 45.286 63.0991 44.8909C62.7039 44.4958 62.1688 44.2726 61.61 44.27C60.2879 44.257 59.0237 43.726 58.0889 42.7911C57.154 41.8563 56.623 40.592 56.61 39.27V35.08C56.6082 33.8262 56.9432 32.5948 57.58 31.5147C58.2168 30.4346 59.132 29.5454 60.23 28.94L68.87 24.16C69.332 23.9286 69.8656 23.885 70.3591 24.0383C70.8525 24.1916 71.2675 24.53 71.517 24.9825C71.7665 25.435 71.8312 25.9665 71.6976 26.4656C71.5639 26.9647 71.2422 27.3928 70.8 27.66L62.17 32.44C61.6965 32.699 61.3018 33.081 61.0272 33.5456C60.7527 34.0102 60.6085 34.5403 60.61 35.08V39.23C60.61 39.4952 60.7153 39.7496 60.9029 39.9371C61.0904 40.1246 61.3448 40.23 61.61 40.23C63.2297 40.2326 64.7822 40.8772 65.9275 42.0225C67.0728 43.1678 67.7173 44.7203 67.72 46.34V54.08C67.7253 54.346 67.6775 54.6104 67.5794 54.8577C67.4813 55.1049 67.3348 55.3302 67.1485 55.5201C66.9623 55.7101 66.74 55.861 66.4947 55.964C66.2494 56.067 65.986 56.12 65.72 56.12Z" fill="#380D75"/>
<path d="M50 63.33C45.008 63.33 40.1281 61.8497 35.9774 59.0763C31.8267 56.3029 28.5917 52.3609 26.6813 47.7489C24.7709 43.1369 24.2711 38.062 25.245 33.1659C26.2189 28.2698 28.6228 23.7725 32.1526 20.2426C35.6825 16.7127 40.1799 14.3089 45.0759 13.335C49.972 12.3611 55.0469 12.8609 59.659 14.7713C64.271 16.6816 68.2129 19.9167 70.9863 24.0674C73.7597 28.2181 75.24 33.098 75.24 38.09C75.2321 44.7816 72.5703 51.1969 67.8386 55.9286C63.1069 60.6603 56.6916 63.3221 50 63.33ZM50 16.85C45.7991 16.85 41.6926 18.0957 38.1997 20.4296C34.7068 22.7635 31.9844 26.0807 30.3768 29.9618C28.7692 33.8429 28.3486 38.1135 29.1681 42.2337C29.9877 46.3539 32.0106 50.1385 34.9811 53.1089C37.9515 56.0794 41.7361 58.1023 45.8563 58.9219C49.9765 59.7414 54.2471 59.3208 58.1282 57.7132C62.0093 56.1056 65.3266 53.3832 67.6604 49.8903C69.9943 46.3974 71.24 42.2909 71.24 38.09C71.2321 32.4592 68.9918 27.0614 65.0102 23.0798C61.0287 19.0983 55.6308 16.8579 50 16.85Z" fill="#380D75"/>
</g>
<defs>
<clipPath id="clip0_21_2279">
<rect width="100" height="100" fill="white"/>
</clipPath>
</defs>
</svg>
