<svg width="24" height="24" viewBox="0 0 24 24" fill="none" xmlns="http://www.w3.org/2000/svg">
<g clip-path="url(#clip0_19_18)">
<path d="M13.15 18.91C13.83 18.73 14.47 18.46 15.06 18.12L17.12 19.7L19.7 17.12L18.12 15.06C18.46 14.47 18.72 13.83 18.91 13.15L21.49 12.81V9.16001L18.91 8.82001C18.73 8.15001 18.46 7.51001 18.12 6.91001L19.7 4.85001L17.12 2.27001L15.06 3.85001C14.47 3.51001 13.83 3.25001 13.15 3.06001L12.81 0.480011H9.15999L8.81999 3.06001C8.13999 3.24001 7.50999 3.51001 6.90999 3.85001L4.84999 2.26001L2.26999 4.84001L3.85999 6.90001C3.51999 7.50001 3.24999 8.14001 3.06999 8.81001L0.48999 9.14001V12.79L3.06999 13.12C3.24999 13.8 3.51999 14.44 3.85999 15.03L2.26999 17.09L4.84999 19.67L6.90999 18.08C7.49999 18.42 8.14999 18.69 8.81999 18.87L9.14999 21.45H12.8L13.15 18.91ZM10.97 14.61C8.94999 14.61 7.31999 12.98 7.31999 10.96C7.31999 8.94001 8.94999 7.31001 10.97 7.31001C12.99 7.31001 14.62 8.94001 14.62 10.96C14.62 12.98 12.99 14.61 10.97 14.61Z" stroke="#171321" stroke-miterlimit="10"/>
<path d="M17.32 23.48C19.99 22.13 22.16 19.95 23.5 17.28" stroke="#171321" stroke-miterlimit="10"/>
</g>
<defs>
<clipPath id="clip0_19_18">
<rect width="24" height="24" fill="white"/>
</clipPath>
</defs>
</svg>
