<svg width="131" height="26" viewBox="0 0 131 26" fill="none" xmlns="http://www.w3.org/2000/svg">
<path d="M12.9593 0.975342C6.06931 0.975342 0.500977 6.4747 0.500977 13.2317C0.500977 20.0099 6.09098 25.488 12.9593 25.488C19.8493 25.488 25.4393 19.9886 25.4393 13.2317C25.4393 6.4747 19.8493 0.975342 12.9593 0.975342Z" fill="#171321"/>
<path d="M21.669 18.6884C21.1923 18.9229 20.2823 19.3065 19.5023 19.3065C19.1123 19.3065 18.744 19.2 18.3757 18.9442C16.3607 17.6227 17.054 16.0453 18.419 13.5941C19.004 12.5496 19.6107 11.4839 19.8707 10.3755C20.1523 9.18184 20.4123 7.45531 19.3723 6.13377C18.874 5.51563 18.1373 5.0467 17.1407 4.72697C16.1223 4.38593 14.8007 4.21541 13.219 4.19409H13.1107H12.699C11.1174 4.21541 9.79569 4.38593 8.77735 4.72697C7.78069 5.0467 7.04402 5.51563 6.54569 6.13377C5.50569 7.45531 5.76569 9.18184 6.04736 10.3755C6.30735 11.4839 6.91402 12.5496 7.49902 13.5941C8.88569 16.0453 9.55735 17.6227 7.54235 18.9442C7.17402 19.1787 6.80569 19.3065 6.41569 19.3065C5.63569 19.3065 4.72569 18.9229 4.24902 18.6884L4.35736 18.9016C5.35402 20.3723 6.63236 21.161 8.06235 21.161C8.69069 21.161 9.34069 21.0118 10.0124 20.7133C10.7274 20.3936 11.3557 19.8394 11.789 19.1147C12.2223 18.39 12.374 17.6013 12.2657 16.9192C12.114 16.3011 11.789 15.4698 11.399 14.4893C10.4024 11.9528 9.03735 8.49976 10.229 6.81586C10.7274 6.11246 11.6157 5.7501 12.959 5.7501C14.3023 5.7501 15.1907 6.11246 15.689 6.81586C16.859 8.49976 15.494 11.9528 14.519 14.4893C14.129 15.4698 13.804 16.3011 13.6523 16.9192C13.5223 17.6227 13.6957 18.4113 14.129 19.136C14.5623 19.8607 15.1907 20.4363 15.9057 20.7347C16.5773 21.0331 17.249 21.1823 17.8557 21.1823C19.2857 21.1823 20.564 20.3936 21.5607 18.9229L21.669 18.6884Z" fill="white"/>
<path d="M36.316 4.30103H33.6943V21.0122H36.316V4.30103Z" fill="#171321"/>
<path d="M49.1861 21.0117H46.5644V19.9246C45.9361 20.6494 44.8094 21.2675 43.4444 21.2675C40.8011 21.2675 39.3711 19.541 39.3711 17.0257V9.58667H41.9928V16.5781C41.9928 17.9849 42.6644 18.9228 44.1594 18.9228C45.2861 18.9228 46.2828 18.2194 46.5644 17.0897V9.58667H49.1861V21.0117Z" fill="#171321"/>
<path d="M55.0572 4.30103H52.4355V21.0122H55.0572V4.30103Z" fill="#171321"/>
<path d="M67.9498 21.0117H65.3281V19.9246C64.6998 20.6494 63.5731 21.2675 62.2081 21.2675C59.5648 21.2675 58.1348 19.541 58.1348 17.0257V9.58667H60.7564V16.5781C60.7564 17.9849 61.4281 18.9228 62.9231 18.9228C64.0498 18.9228 65.0464 18.2194 65.3281 17.0897V9.58667H67.9498V21.0117Z" fill="#171321"/>
<path d="M73.7994 4.30103H71.1777V21.0122H73.7994V4.30103Z" fill="#171321"/>
<path d="M86.6039 17.473C86.2139 19.7324 84.5023 21.2884 81.7073 21.2884C78.4573 21.2884 76.2256 18.8798 76.2256 15.3414C76.2256 11.931 78.5006 9.35181 81.6639 9.35181C84.9356 9.35181 86.7123 11.6326 86.7123 14.9791V15.8956H78.7823C78.8689 17.8993 80.0389 19.1143 81.7073 19.1143C82.9639 19.1143 83.8956 18.5814 84.1989 17.473H86.6039ZM78.8689 14.0199H84.1339C84.1123 12.6344 83.2889 11.5047 81.7073 11.5047C80.2556 11.5047 79.1939 12.3786 78.8689 14.0199Z" fill="#171321"/>
<path d="M101.142 9.35181C103.526 9.35181 104.912 10.9931 104.912 13.5936V21.0326H102.291V14.0199C102.291 12.6131 101.662 11.6752 100.384 11.6752C99.4522 11.6752 98.5639 12.2507 98.3255 13.3804V21.0539H95.7039V14.0412C95.7039 12.6344 95.0755 11.6965 93.7972 11.6965C92.8655 11.6965 91.9772 12.272 91.7389 13.4017V21.0752H89.1172V9.65022H91.7389V10.6094C92.2805 9.88469 93.3422 9.39443 94.6422 9.39443C95.9422 9.39443 97.0905 10.0339 97.6972 10.9078C98.4989 9.92732 99.5822 9.35181 101.142 9.35181Z" fill="#171321"/>
<path d="M112.691 21.2674C109.419 21.2674 107.166 18.7948 107.166 15.2991C107.166 11.8034 109.419 9.33081 112.691 9.33081C115.963 9.33081 118.216 11.8034 118.216 15.2991C118.216 18.8161 115.963 21.2674 112.691 21.2674ZM112.691 11.5476C110.806 11.5476 109.788 13.1462 109.788 15.2991C109.788 17.4519 110.806 19.0506 112.691 19.0506C114.576 19.0506 115.594 17.4519 115.594 15.2991C115.594 13.1462 114.576 11.5476 112.691 11.5476Z" fill="#171321"/>
<path d="M120.643 9.60759H123.264V10.6947C123.893 9.96995 125.041 9.35181 126.406 9.35181C129.049 9.35181 130.501 11.0784 130.501 13.5936V21.0326H127.879V14.0199C127.879 12.6131 127.164 11.6752 125.691 11.6752C124.564 11.6752 123.546 12.3786 123.264 13.5083V21.0113H120.643V9.60759Z" fill="#171321"/>
</svg>
